﻿{
  "$schema": "http://adaptivecards.io/schemas/adaptive-card.json",
  "type": "AdaptiveCard",
  "version": "1.0",
  "body": [
    {
      "type": "ColumnSet",
      "columns": [
        {
          "type": "Column",
          "width": 2,
          "items": [
            {
              "type": "Image",
              "url": "https://static-serves.s3.ap-south-1.amazonaws.com/airport-bot-images/Terminal2.PNG",
              "size": "auto"
            },
            {
              "type": "TextBlock",
              "text": "Delhi Airport",
              "spacing": "Small",
              "size": "Medium"
            },
            {
              "type": "TextBlock",
              "text": "Terminal 2",
              "weight": "Bolder",
              "size": "ExtraLarge",
              "spacing": "None"
            }
          ]
        }
      ]
    }
  ],
  "actions": [
    {
      "type": "Action.OpenUrl",
      "title": "More Info About Terminal 2",
      "url": "https://www.newdelhiairport.in/airport-interactive-map-t2",
      "style": "positive"
    }
  ]
}